<?xml version="1.0" encoding="utf-8"?>
<!-- Generator: Adobe Illustrator 23.0.0, SVG Export Plug-In . SVG Version: 6.00 Build 0)  -->
<svg version="1.0" id="Layer_1" xmlns="http://www.w3.org/2000/svg" xmlns:xlink="http://www.w3.org/1999/xlink" x="0px" y="0px"
	 viewBox="0 0 1000 1000" style="enable-background:new 0 0 1000 1000;" xml:space="preserve">
<style type="text/css">
	.st0{fill:#003D4C;}
</style>
<g>
	<g>
		<path class="st0" d="M470.8,494.92c-0.68,0.91-1.36,1.61-2.04,2.09c-0.68,0.48-1.65,0.72-2.9,0.72c-1.14,0-2.23-0.33-3.28-0.98
			c-1.05-0.65-2.26-1.36-3.62-2.13c-1.36-0.77-2.98-1.48-4.85-2.13c-1.87-0.65-4.2-0.98-6.98-0.98c-3.52,0-6.57,0.64-9.16,1.92
			c-2.58,1.28-4.73,3.11-6.43,5.49c-1.7,2.38-2.97,5.28-3.79,8.69c-0.82,3.41-1.24,7.24-1.24,11.5c0,8.97,1.8,15.84,5.41,20.61
			c3.6,4.77,8.53,7.15,14.78,7.15c2.16,0,4.02-0.18,5.58-0.55c1.56-0.37,2.92-0.84,4.09-1.41c1.16-0.57,2.17-1.19,3.02-1.87
			c0.85-0.68,1.66-1.3,2.43-1.87c0.77-0.57,1.53-1.04,2.3-1.41c0.77-0.37,1.63-0.55,2.6-0.55c1.82,0,3.24,0.68,4.26,2.04l6.73,8.52
			c-2.5,2.9-5.17,5.29-8,7.2c-2.84,1.9-5.78,3.41-8.82,4.51c-3.04,1.11-6.12,1.87-9.24,2.3c-3.12,0.43-6.22,0.64-9.28,0.64
			c-5.39,0-10.5-1.01-15.33-3.02c-4.83-2.01-9.06-4.95-12.69-8.81c-3.63-3.86-6.52-8.6-8.64-14.22s-3.19-12.04-3.19-19.25
			c0-6.42,0.94-12.38,2.81-17.88c1.87-5.51,4.63-10.28,8.26-14.31c3.63-4.03,8.13-7.2,13.5-9.5c5.37-2.3,11.57-3.45,18.61-3.45
			c6.7,0,12.58,1.08,17.63,3.24c5.05,2.16,9.59,5.28,13.63,9.37L470.8,494.92z"/>
		<path class="st0" d="M516.53,450.37c0,1.99-0.4,3.83-1.19,5.54c-0.8,1.7-1.86,3.21-3.19,4.51c-1.33,1.31-2.9,2.33-4.68,3.07
			c-1.79,0.74-3.71,1.11-5.75,1.11c-1.93,0-3.76-0.37-5.49-1.11c-1.73-0.74-3.25-1.76-4.56-3.07c-1.31-1.31-2.34-2.81-3.11-4.51
			s-1.15-3.55-1.15-5.54c0-1.99,0.38-3.85,1.15-5.58c0.77-1.73,1.8-3.25,3.11-4.56c1.31-1.3,2.82-2.33,4.56-3.07
			c1.73-0.74,3.56-1.11,5.49-1.11c2.04,0,3.96,0.37,5.75,1.11c1.79,0.74,3.35,1.76,4.68,3.07c1.33,1.31,2.4,2.83,3.19,4.56
			C516.13,446.53,516.53,448.39,516.53,450.37z M513.72,475.33v87.81h-23.51v-87.81H513.72z"/>
		<path class="st0" d="M555.88,489.81c2.78-5,5.99-8.94,9.62-11.84c3.63-2.9,7.89-4.34,12.78-4.34c3.97,0,7.21,0.94,9.71,2.81
			l-1.53,17.37c-0.29,1.14-0.72,1.92-1.32,2.34c-0.6,0.43-1.41,0.64-2.43,0.64c-0.91,0-2.21-0.13-3.92-0.38
			c-1.7-0.26-3.29-0.38-4.77-0.38c-2.16,0-4.07,0.31-5.75,0.94c-1.68,0.63-3.17,1.51-4.47,2.64c-1.31,1.14-2.48,2.53-3.53,4.17
			c-1.05,1.65-2.03,3.52-2.94,5.62v53.74h-23.51v-87.81h13.88c2.38,0,4.03,0.43,4.94,1.28c0.91,0.85,1.56,2.33,1.96,4.43
			L555.88,489.81z"/>
		<path class="st0" d="M620.18,486.82c1.76-1.93,3.63-3.7,5.62-5.32c1.99-1.62,4.12-3.01,6.39-4.17c2.27-1.16,4.71-2.07,7.33-2.72
			c2.61-0.65,5.45-0.98,8.52-0.98c4.71,0,9.04,1.01,12.99,3.02c3.95,2.02,7.34,4.94,10.18,8.77c2.84,3.83,5.05,8.53,6.64,14.1
			c1.59,5.56,2.38,11.92,2.38,19.08c0,6.59-0.89,12.68-2.68,18.27c-1.79,5.59-4.33,10.43-7.62,14.52
			c-3.29,4.09-7.25,7.28-11.88,9.58c-4.63,2.3-9.78,3.45-15.46,3.45c-4.77,0-8.81-0.71-12.14-2.13c-3.32-1.42-6.29-3.35-8.9-5.79v35
			h-23.51V475.33h14.48c2.95,0,4.91,1.36,5.88,4.09L620.18,486.82z M621.54,539.97c2.21,2.55,4.61,4.34,7.2,5.37
			c2.58,1.02,5.35,1.53,8.3,1.53c2.84,0,5.42-0.54,7.75-1.62c2.33-1.08,4.33-2.77,6-5.07c1.67-2.3,2.97-5.24,3.88-8.82
			c0.91-3.58,1.36-7.83,1.36-12.77c0-4.88-0.38-9.03-1.15-12.43c-0.77-3.41-1.85-6.16-3.24-8.26c-1.39-2.1-3.08-3.62-5.07-4.56
			c-1.99-0.94-4.2-1.41-6.64-1.41c-4.15,0-7.62,0.81-10.43,2.43s-5.46,3.99-7.96,7.11V539.97z"/>
		<path class="st0" d="M718.97,436.15v126.98h-23.51V436.15H718.97z"/>
		<path class="st0" d="M815.63,475.33v87.81h-14.48c-3.01,0-4.94-1.36-5.79-4.09l-1.53-6.13c-1.76,1.7-3.58,3.27-5.45,4.68
			c-1.87,1.42-3.88,2.64-6,3.66c-2.13,1.02-4.43,1.82-6.9,2.38c-2.47,0.57-5.15,0.85-8.05,0.85c-4.77,0-9.01-0.82-12.73-2.47
			c-3.72-1.65-6.83-3.95-9.33-6.9c-2.5-2.95-4.4-6.47-5.71-10.56c-1.31-4.09-1.96-8.57-1.96-13.46v-55.78h23.51v55.78
			c0,4.88,1.12,8.67,3.36,11.37c2.24,2.7,5.58,4.05,10.01,4.05c3.29,0,6.39-0.72,9.28-2.17c2.9-1.45,5.65-3.42,8.26-5.92v-63.11
			H815.63z"/>
		<path class="st0" d="M889.64,493.38c-0.63,0.97-1.26,1.66-1.92,2.09c-0.65,0.43-1.55,0.64-2.68,0.64c-1.14,0-2.3-0.28-3.49-0.85
			c-1.19-0.57-2.53-1.18-4-1.83c-1.48-0.65-3.17-1.26-5.07-1.83c-1.9-0.57-4.1-0.85-6.6-0.85c-3.8,0-6.76,0.78-8.86,2.34
			c-2.1,1.56-3.15,3.62-3.15,6.17c0,1.76,0.6,3.24,1.79,4.43s2.77,2.23,4.73,3.11c1.96,0.88,4.19,1.7,6.69,2.47
			c2.5,0.77,5.07,1.61,7.71,2.51c2.64,0.91,5.21,1.96,7.71,3.15c2.5,1.19,4.73,2.68,6.69,4.47c1.96,1.79,3.53,3.95,4.73,6.47
			c1.19,2.53,1.79,5.58,1.79,9.16c0,4.26-0.78,8.19-2.34,11.79c-1.56,3.61-3.85,6.71-6.86,9.33c-3.01,2.61-6.76,4.66-11.24,6.13
			s-9.65,2.21-15.5,2.21c-3.01,0-5.99-0.27-8.94-0.81c-2.95-0.54-5.76-1.31-8.43-2.3c-2.67-0.99-5.17-2.14-7.49-3.45
			c-2.33-1.31-4.34-2.73-6.05-4.26l5.45-8.77c0.62-1.02,1.41-1.82,2.34-2.38c0.94-0.57,2.14-0.85,3.62-0.85
			c1.42,0,2.73,0.36,3.92,1.06c1.19,0.71,2.53,1.48,4,2.3c1.48,0.82,3.22,1.59,5.24,2.3c2.01,0.71,4.53,1.07,7.54,1.07
			c2.27,0,4.23-0.26,5.88-0.77c1.65-0.51,2.98-1.21,4-2.09c1.02-0.88,1.77-1.87,2.26-2.98c0.48-1.11,0.72-2.26,0.72-3.45
			c0-1.93-0.61-3.51-1.83-4.73c-1.22-1.22-2.81-2.28-4.77-3.19c-1.96-0.91-4.22-1.73-6.77-2.47c-2.56-0.74-5.15-1.56-7.79-2.47
			c-2.64-0.91-5.22-1.99-7.75-3.24c-2.53-1.25-4.77-2.82-6.73-4.73s-3.55-4.24-4.77-7.03c-1.22-2.78-1.83-6.16-1.83-10.13
			c0-3.63,0.71-7.08,2.13-10.35c1.42-3.26,3.55-6.15,6.39-8.64c2.84-2.5,6.37-4.48,10.6-5.96c4.23-1.48,9.13-2.21,14.69-2.21
			c6.25,0,11.92,1.02,17.03,3.07s9.31,4.71,12.6,8.01L889.64,493.38z"/>
	</g>
	<g>
		<path class="st0" d="M214.91,501.71l-8.72,8.71c-8.58,8.58-19.99,13.31-32.12,13.31c-12.14,0-23.54-4.73-32.12-13.31
			c-17.72-17.71-17.72-46.53,0-64.24c8.57-8.58,19.99-13.3,32.12-13.3c12.14,0,23.55,4.72,32.12,13.3l8.72,8.71l17.24-17.24
			l-8.71-8.72c-13.18-13.17-30.71-20.43-49.37-20.43c-18.65,0-36.17,7.26-49.36,20.43c-27.21,27.23-27.21,71.52,0,98.73
			c13.19,13.18,30.71,20.44,49.36,20.44s36.17-7.26,49.37-20.44l8.71-8.72L214.91,501.71z"/>
		<path class="st0" d="M255.56,542.36l8.72,8.72c8.58,8.58,19.99,13.31,32.12,13.31c12.14,0,23.54-4.73,32.12-13.31
			c17.72-17.71,17.72-46.53,0-64.24c-8.57-8.58-19.99-13.3-32.12-13.3c-12.14,0-23.55,4.72-32.12,13.3l-8.72,8.72l-17.24-17.24
			l8.72-8.72c13.18-13.17,30.71-20.43,49.37-20.43c18.65,0,36.17,7.26,49.36,20.43c27.21,27.23,27.21,71.52,0,98.73
			c-13.19,13.18-30.71,20.44-49.36,20.44s-36.17-7.26-49.37-20.44l-8.72-8.72L255.56,542.36z"/>
	</g>
</g>
</svg>
